Seb’s blog - Interesting R packages
…
aq_nabular <- nabular(aq)
aq_nabular

# A tibble: 153 × 14
   Ozone Solar.R  Wind  Temp Month   Day fct   Ozone_NA Solar.R_NA Wind_NA
   <dbl>   <int> <dbl> <int> <int> <int> <chr> <fct>    <fct>      <fct>  
 1    41     190   7.4    67     5     1 b     !NA      !NA        !NA    
 2    36     118   8      72     5     2 <NA>  !NA      !NA        !NA    
 3    12     149  12.6    74     5     3 <NA>  !NA      !NA        !NA    
 4    18     313  11.5    62     5     4 a     !NA      !NA        !NA    
 5    NA      NA  14.3    56     5     5 <NA>  NA       NA         !NA    
 6    28      NA  14.9    66     5     6 a     !NA      NA         !NA    
 7    23     299   8.6    65     5     7 a     !NA      !NA        !NA    
 8    19      99  13.8    59     5     8 b     !NA      !NA        !NA    
 9     8      19  20.1    61     5     9 b     !NA      !NA        !NA    
10    NA     194   8.6    69     5    10 a     NA       !NA        !NA    
# ℹ 143 more rows
# ℹ 4 more variables: Temp_NA <fct>, Month_NA <fct>, Day_NA <fct>, fct_NA <fct>

aq_nabular |> impute_lm(Ozone ~ Temp)

# A tibble: 153 × 14
   Ozone Solar.R  Wind  Temp Month   Day fct   Ozone_NA Solar.R_NA Wind_NA
 * <dbl>   <int> <dbl> <int> <int> <int> <chr> <fct>    <fct>      <fct>  
 1  41       190   7.4    67     5     1 b     !NA      !NA        !NA    
 2  36       118   8      72     5     2 <NA>  !NA      !NA        !NA    
 3  12       149  12.6    74     5     3 <NA>  !NA      !NA        !NA    
 4  18       313  11.5    62     5     4 a     !NA      !NA        !NA    
 5 -11.0      NA  14.3    56     5     5 <NA>  NA       NA         !NA    
 6  28        NA  14.9    66     5     6 a     !NA      NA         !NA    
 7  23       299   8.6    65     5     7 a     !NA      !NA        !NA    
 8  19        99  13.8    59     5     8 b     !NA      !NA        !NA    
 9   8        19  20.1    61     5     9 b     !NA      !NA        !NA    
10  20.6     194   8.6    69     5    10 a     NA       !NA        !NA    
# ℹ 143 more rows
# ℹ 4 more variables: Temp_NA <fct>, Month_NA <fct>, Day_NA <fct>, fct_NA <fct>
…
