Seb’s blog - Getting to know tidymodels
…
penguin_test <- testing(penguin_split)

set.seed(123)
penguin_boot <- bootstraps(penguin_train)
penguin_boot

# Bootstrap sampling 
# A tibble: 25 × 2
   splits           id         
   <list>           <chr>      
 1 <split [249/93]> Bootstrap01
 2 <split [249/91]> Bootstrap02
 3 <split [249/90]> Bootstrap03
 4 <split [249/91]> Bootstrap04
 5 <split [249/85]> Bootstrap05
 6 <split [249/87]> Bootstrap06
 7 <split [249/94]> Bootstrap07
 8 <split [249/88]> Bootstrap08
 9 <split [249/95]> Bootstrap09
10 <split [249/89]> Bootstrap10
# ℹ 15 more rows

Question:

# how can I extract a single bootstrap sample?
x <- penguin_boot |> 
  select(splits) |> 
  slice(2) |>
  pull()

x[[1]]$data

# A tibble: 249 × 6
   species bill_length_mm bill_depth_mm flipper_length_mm body_mass_g sex   
   <fct>            <dbl>         <dbl>             <int>       <int> <fct> 
 1 Adelie            39.5          17.4               186        3800 female
 2 Adelie            40.3          18                 195        3250 female
 3 Adelie            36.7          19.3               193        3450 female
 4 Adelie            36.6          17.8               185        3700 female
 5 Adelie            38.7          19                 195        3450 female
 6 Adelie            35.9          19.2               189        3800 female
 7 Adelie            37.9          18.6               172        3150 female
 8 Adelie            39.5          16.7               178        3250 female
 9 Adelie            39.5          17.8               188        3300 female
10 Adelie            42.2          18.5               180        3550 female
# ℹ 239 more rows

x <- penguin_boot |> 
  filter(id == 'Bootstrap01') |> 
  select(splits) |> 
  pull()

x[[1]]$data

# A tibble: 249 × 6
   species bill_length_mm bill_depth_mm flipper_length_mm body_mass_g sex   
   <fct>            <dbl>         <dbl>             <int>       <int> <fct> 
 1 Adelie            39.5          17.4               186        3800 female
 2 Adelie            40.3          18                 195        3250 female
 3 Adelie            36.7          19.3               193        3450 female
 4 Adelie            36.6          17.8               185        3700 female
 5 Adelie            38.7          19                 195        3450 female
 6 Adelie            35.9          19.2               189        3800 female
 7 Adelie            37.9          18.6               172        3150 female
 8 Adelie            39.5          16.7               178        3250 female
 9 Adelie            39.5          17.8               188        3300 female
10 Adelie            42.2          18.5               180        3550 female
# ℹ 239 more rows
…
→ A | warning: glm.fit: fitted probabilities numerically 0 or 1 occurred

There were issues with some computations   A: x1

There were issues with some computations   A: x2

glm_rs

# Resampling results
# Bootstrap sampling 
# A tibble: 25 × 5
   splits           id          .metrics         .notes           .predictions
   <list>           <chr>       <list>           <list>           <list>      
 1 <split [249/93]> Bootstrap01 <tibble [2 × 4]> <tibble [0 × 3]> <tibble>    
 2 <split [249/91]> Bootstrap02 <tibble [2 × 4]> <tibble [0 × 3]> <tibble>    
 3 <split [249/90]> Bootstrap03 <tibble [2 × 4]> <tibble [0 × 3]> <tibble>    
 4 <split [249/91]> Bootstrap04 <tibble [2 × 4]> <tibble [0 × 3]> <tibble>    
 5 <split [249/85]> Bootstrap05 <tibble [2 × 4]> <tibble [0 × 3]> <tibble>    
 6 <split [249/87]> Bootstrap06 <tibble [2 × 4]> <tibble [0 × 3]> <tibble>    
 7 <split [249/94]> Bootstrap07 <tibble [2 × 4]> <tibble [0 × 3]> <tibble>    
 8 <split [249/88]> Bootstrap08 <tibble [2 × 4]> <tibble [0 × 3]> <tibble>    
 9 <split [249/95]> Bootstrap09 <tibble [2 × 4]> <tibble [0 × 3]> <tibble>    
10 <split [249/89]> Bootstrap10 <tibble [2 × 4]> <tibble [1 × 3]> <tibble>    
# ℹ 15 more rows
…
Run `show_notes(.Last.tune.result)` for more information.

rf_rs <- penguin_wf %>%
  add_model(rf_spec) %>%
  fit_resamples(
    resamples = penguin_boot,
    control = control_resamples(save_pred = TRUE)
  )

rf_rs

# Resampling results
# Bootstrap sampling 
# A tibble: 25 × 5
   splits           id          .metrics         .notes           .predictions
   <list>           <chr>       <list>           <list>           <list>      
 1 <split [249/93]> Bootstrap01 <tibble [2 × 4]> <tibble [0 × 3]> <tibble>    
 2 <split [249/91]> Bootstrap02 <tibble [2 × 4]> <tibble [0 × 3]> <tibble>    
 3 <split [249/90]> Bootstrap03 <tibble [2 × 4]> <tibble [0 × 3]> <tibble>    
 4 <split [249/91]> Bootstrap04 <tibble [2 × 4]> <tibble [0 × 3]> <tibble>    
 5 <split [249/85]> Bootstrap05 <tibble [2 × 4]> <tibble [0 × 3]> <tibble>    
 6 <split [249/87]> Bootstrap06 <tibble [2 × 4]> <tibble [0 × 3]> <tibble>    
 7 <split [249/94]> Bootstrap07 <tibble [2 × 4]> <tibble [0 × 3]> <tibble>    
 8 <split [249/88]> Bootstrap08 <tibble [2 × 4]> <tibble [0 × 3]> <tibble>    
 9 <split [249/95]> Bootstrap09 <tibble [2 × 4]> <tibble [0 × 3]> <tibble>    
10 <split [249/89]> Bootstrap10 <tibble [2 × 4]> <tibble [0 × 3]> <tibble>    
# ℹ 15 more rows
…
